^C:\USERS\ACER\SOURCE\REPOS\LAB12\LAB12\DEBUG\LAB12.OBJ
C:\USERS\ACER\SOURCE\REPOS\LAB12\DEBUG\LAB12.EXE
C:\USERS\ACER\SOURCE\REPOS\LAB12\LAB12\DEBUG\LAB12.ILK
C:\USERS\ACER\SOURCE\REPOS\LAB12\DEBUG\LAB12.PDB
