^C:\USERS\ACER\SOURCE\REPOS\LAB12\TASK-3\DEBUG\TASK-3.OBJ
C:\USERS\ACER\SOURCE\REPOS\LAB12\DEBUG\TASK-3.EXE
C:\USERS\ACER\SOURCE\REPOS\LAB12\TASK-3\DEBUG\TASK-3.ILK
C:\USERS\ACER\SOURCE\REPOS\LAB12\DEBUG\TASK-3.PDB
